test/axi_fifo_full/rerun_with_logs.txt
rm -f results.xml
"make" -f Makefile results.xml
make[1]: 进入目录“/nfs/home/zhaohong/openxs/XiangShan_master/ChiselAIA/test/axi_fifo_full”
mkdir -p ../sim_build_axi_fifo
/nfs/home/zhaohong/verilator/bin/verilator -cc --exe -Mdir ../sim_build_axi_fifo -DCOCOTB_SIM=1 --top-module AXI4IMSIC --trace --trace-structs --timescale 1ns/1ps --vpi --public-flat-rw --prefix Vtop -o Vtop -LDFLAGS "-Wl,-rpath,/nfs/home/zhaohong/openxs/XiangShan_master/.venv/lib/python3.12/site-packages/cocotb/libs -L/nfs/home/zhaohong/openxs/XiangShan_master/.venv/lib/python3.12/site-packages/cocotb/libs -lcocotbvpi_verilator" --trace --trace-fst --trace-structs /nfs/home/zhaohong/openxs/XiangShan_master/gen_axi/ram_2x2.sv /nfs/home/zhaohong/openxs/XiangShan_master/gen_axi/Queue2_UInt2.sv /nfs/home/zhaohong/openxs/XiangShan_master/gen_axi/AXI4Xbar.sv /nfs/home/zhaohong/openxs/XiangShan_master/gen_axi/ram_2x4.sv /nfs/home/zhaohong/openxs/XiangShan_master/gen_axi/Queue2_UInt4.sv /nfs/home/zhaohong/openxs/XiangShan_master/gen_axi/AXI4Xbar_1.sv /nfs/home/zhaohong/openxs/XiangShan_master/gen_axi/AXI4Map.sv /nfs/home/zhaohong/openxs/XiangShan_master/gen_axi/AXI4Xbar_2.sv /nfs/home/zhaohong/openxs/XiangShan_master/gen_axi/AXI4Xbar_3.sv /nfs/home/zhaohong/openxs/XiangShan_master/gen_axi/AXI4ToLite.sv /nfs/home/zhaohong/openxs/XiangShan_master/gen_axi/Queue1_RegMapperInput.sv /nfs/home/zhaohong/openxs/XiangShan_master/gen_axi/Queue1_RegMapperInput_1.sv /nfs/home/zhaohong/openxs/XiangShan_master/gen_axi/RegGen.sv /nfs/home/zhaohong/openxs/XiangShan_master/gen_axi/ram_8x13.sv /nfs/home/zhaohong/openxs/XiangShan_master/gen_axi/Queue8_UInt13.sv /nfs/home/zhaohong/openxs/XiangShan_master/gen_axi/AsyncResetSynchronizerPrimitiveShiftReg_d3_i0.sv /nfs/home/zhaohong/openxs/XiangShan_master/gen_axi/AsyncResetSynchronizerShiftReg_w1_d3_i0.sv /nfs/home/zhaohong/openxs/XiangShan_master/gen_axi/AXIRegIMSIC.sv /nfs/home/zhaohong/openxs/XiangShan_master/gen_axi/AXIRegIMSIC_WRAP.sv /nfs/home/zhaohong/openxs/XiangShan_master/gen_axi/IMSICGateWay.sv /nfs/home/zhaohong/openxs/XiangShan_master/gen_axi/IntFile.sv /nfs/home/zhaohong/openxs/XiangShan_master/gen_axi/IMSIC.sv /nfs/home/zhaohong/openxs/XiangShan_master/gen_axi/IMSIC_WRAP.sv /nfs/home/zhaohong/openxs/XiangShan_master/gen_axi/AXI4IMSIC.sv /nfs/home/zhaohong/openxs/XiangShan_master/gen_axi/AXI4Map_2.sv /nfs/home/zhaohong/openxs/XiangShan_master/gen_axi/AXI4Map_4.sv /nfs/home/zhaohong/openxs/XiangShan_master/gen_axi/AXI4Map_6.sv /nfs/home/zhaohong/openxs/XiangShan_master/gen_axi/AXI4Xbar_10.sv /nfs/home/zhaohong/openxs/XiangShan_master/gen_axi/AXI4Xbar_11.sv /nfs/home/zhaohong/openxs/XiangShan_master/gen_axi/Queue1_RegMapperInput_8.sv /nfs/home/zhaohong/openxs/XiangShan_master/gen_axi/Domain.sv /nfs/home/zhaohong/openxs/XiangShan_master/gen_axi/Domain_1.sv /nfs/home/zhaohong/openxs/XiangShan_master/gen_axi/APLIC.sv /nfs/home/zhaohong/openxs/XiangShan_master/gen_axi/AXI4APLIC.sv /nfs/home/zhaohong/openxs/XiangShan_master/gen_axi/AXI4AIA.sv /nfs/home/zhaohong/openxs/XiangShan_master/.venv/lib/python3.12/site-packages/cocotb/share/lib/verilator/verilator.cpp
make -C ../sim_build_axi_fifo  -f Vtop.mk
make[2]: 进入目录“/nfs/home/zhaohong/openxs/XiangShan_master/ChiselAIA/test/sim_build_axi_fifo”
ccache g++  -I.  -MMD -I/nfs/home/zhaohong/verilator/include -I/nfs/home/zhaohong/verilator/include/vltstd -DVM_COVERAGE=0 -DVM_SC=0 -DVM_TRACE=1 -DVM_TRACE_FST=1 -DVM_TRACE_VCD=0 -faligned-new -fcf-protection=none -Wno-bool-operation -Wno-shadow -Wno-sign-compare -Wno-tautological-compare -Wno-uninitialized -Wno-unused-but-set-parameter -Wno-unused-but-set-variable -Wno-unused-parameter -Wno-unused-variable      -Os -c -o verilator.o /nfs/home/zhaohong/openxs/XiangShan_master/.venv/lib/python3.12/site-packages/cocotb/share/lib/verilator/verilator.cpp
ccache g++ -Os  -I.  -MMD -I/nfs/home/zhaohong/verilator/include -I/nfs/home/zhaohong/verilator/include/vltstd -DVM_COVERAGE=0 -DVM_SC=0 -DVM_TRACE=1 -DVM_TRACE_FST=1 -DVM_TRACE_VCD=0 -faligned-new -fcf-protection=none -Wno-bool-operation -Wno-shadow -Wno-sign-compare -Wno-tautological-compare -Wno-uninitialized -Wno-unused-but-set-parameter -Wno-unused-but-set-variable -Wno-unused-parameter -Wno-unused-variable      -c -o verilated.o /nfs/home/zhaohong/verilator/include/verilated.cpp
ccache g++ -Os  -I.  -MMD -I/nfs/home/zhaohong/verilator/include -I/nfs/home/zhaohong/verilator/include/vltstd -DVM_COVERAGE=0 -DVM_SC=0 -DVM_TRACE=1 -DVM_TRACE_FST=1 -DVM_TRACE_VCD=0 -faligned-new -fcf-protection=none -Wno-bool-operation -Wno-shadow -Wno-sign-compare -Wno-tautological-compare -Wno-uninitialized -Wno-unused-but-set-parameter -Wno-unused-but-set-variable -Wno-unused-parameter -Wno-unused-variable      -c -o verilated_dpi.o /nfs/home/zhaohong/verilator/include/verilated_dpi.cpp
ccache g++ -Os  -I.  -MMD -I/nfs/home/zhaohong/verilator/include -I/nfs/home/zhaohong/verilator/include/vltstd -DVM_COVERAGE=0 -DVM_SC=0 -DVM_TRACE=1 -DVM_TRACE_FST=1 -DVM_TRACE_VCD=0 -faligned-new -fcf-protection=none -Wno-bool-operation -Wno-shadow -Wno-sign-compare -Wno-tautological-compare -Wno-uninitialized -Wno-unused-but-set-parameter -Wno-unused-but-set-variable -Wno-unused-parameter -Wno-unused-variable      -c -o verilated_vpi.o /nfs/home/zhaohong/verilator/include/verilated_vpi.cpp
ccache g++ -Os  -I.  -MMD -I/nfs/home/zhaohong/verilator/include -I/nfs/home/zhaohong/verilator/include/vltstd -DVM_COVERAGE=0 -DVM_SC=0 -DVM_TRACE=1 -DVM_TRACE_FST=1 -DVM_TRACE_VCD=0 -faligned-new -fcf-protection=none -Wno-bool-operation -Wno-shadow -Wno-sign-compare -Wno-tautological-compare -Wno-uninitialized -Wno-unused-but-set-parameter -Wno-unused-but-set-variable -Wno-unused-parameter -Wno-unused-variable      -c -o verilated_fst_c.o /nfs/home/zhaohong/verilator/include/verilated_fst_c.cpp
ccache g++ -Os  -I.  -MMD -I/nfs/home/zhaohong/verilator/include -I/nfs/home/zhaohong/verilator/include/vltstd -DVM_COVERAGE=0 -DVM_SC=0 -DVM_TRACE=1 -DVM_TRACE_FST=1 -DVM_TRACE_VCD=0 -faligned-new -fcf-protection=none -Wno-bool-operation -Wno-shadow -Wno-sign-compare -Wno-tautological-compare -Wno-uninitialized -Wno-unused-but-set-parameter -Wno-unused-but-set-variable -Wno-unused-parameter -Wno-unused-variable      -c -o verilated_threads.o /nfs/home/zhaohong/verilator/include/verilated_threads.cpp
ccache g++ -Os  -I.  -MMD -I/nfs/home/zhaohong/verilator/include -I/nfs/home/zhaohong/verilator/include/vltstd -DVM_COVERAGE=0 -DVM_SC=0 -DVM_TRACE=1 -DVM_TRACE_FST=1 -DVM_TRACE_VCD=0 -faligned-new -fcf-protection=none -Wno-bool-operation -Wno-shadow -Wno-sign-compare -Wno-tautological-compare -Wno-uninitialized -Wno-unused-but-set-parameter -Wno-unused-but-set-variable -Wno-unused-parameter -Wno-unused-variable      -x c++-header Vtop__pch.h -o Vtop__pch.h.fast.gch
ccache g++ -Os  -I.  -MMD -I/nfs/home/zhaohong/verilator/include -I/nfs/home/zhaohong/verilator/include/vltstd -DVM_COVERAGE=0 -DVM_SC=0 -DVM_TRACE=1 -DVM_TRACE_FST=1 -DVM_TRACE_VCD=0 -faligned-new -fcf-protection=none -Wno-bool-operation -Wno-shadow -Wno-sign-compare -Wno-tautological-compare -Wno-uninitialized -Wno-unused-but-set-parameter -Wno-unused-but-set-variable -Wno-unused-parameter -Wno-unused-variable      -include Vtop__pch.h.fast -c -o Vtop.o Vtop.cpp
ccache g++ -Os  -I.  -MMD -I/nfs/home/zhaohong/verilator/include -I/nfs/home/zhaohong/verilator/include/vltstd -DVM_COVERAGE=0 -DVM_SC=0 -DVM_TRACE=1 -DVM_TRACE_FST=1 -DVM_TRACE_VCD=0 -faligned-new -fcf-protection=none -Wno-bool-operation -Wno-shadow -Wno-sign-compare -Wno-tautological-compare -Wno-uninitialized -Wno-unused-but-set-parameter -Wno-unused-but-set-variable -Wno-unused-parameter -Wno-unused-variable      -include Vtop__pch.h.fast -c -o Vtop___024root__DepSet_h84412442__0.o Vtop___024root__DepSet_h84412442__0.cpp
ccache g++ -Os  -I.  -MMD -I/nfs/home/zhaohong/verilator/include -I/nfs/home/zhaohong/verilator/include/vltstd -DVM_COVERAGE=0 -DVM_SC=0 -DVM_TRACE=1 -DVM_TRACE_FST=1 -DVM_TRACE_VCD=0 -faligned-new -fcf-protection=none -Wno-bool-operation -Wno-shadow -Wno-sign-compare -Wno-tautological-compare -Wno-uninitialized -Wno-unused-but-set-parameter -Wno-unused-but-set-variable -Wno-unused-parameter -Wno-unused-variable      -include Vtop__pch.h.fast -c -o Vtop___024root__DepSet_heccd7ead__0.o Vtop___024root__DepSet_heccd7ead__0.cpp
ccache g++ -Os  -I.  -MMD -I/nfs/home/zhaohong/verilator/include -I/nfs/home/zhaohong/verilator/include/vltstd -DVM_COVERAGE=0 -DVM_SC=0 -DVM_TRACE=1 -DVM_TRACE_FST=1 -DVM_TRACE_VCD=0 -faligned-new -fcf-protection=none -Wno-bool-operation -Wno-shadow -Wno-sign-compare -Wno-tautological-compare -Wno-uninitialized -Wno-unused-but-set-parameter -Wno-unused-but-set-variable -Wno-unused-parameter -Wno-unused-variable      -include Vtop__pch.h.fast -c -o Vtop_IntFile__DepSet_hd4879354__0.o Vtop_IntFile__DepSet_hd4879354__0.cpp
ccache g++ -Os  -I.  -MMD -I/nfs/home/zhaohong/verilator/include -I/nfs/home/zhaohong/verilator/include/vltstd -DVM_COVERAGE=0 -DVM_SC=0 -DVM_TRACE=1 -DVM_TRACE_FST=1 -DVM_TRACE_VCD=0 -faligned-new -fcf-protection=none -Wno-bool-operation -Wno-shadow -Wno-sign-compare -Wno-tautological-compare -Wno-uninitialized -Wno-unused-but-set-parameter -Wno-unused-but-set-variable -Wno-unused-parameter -Wno-unused-variable      -include Vtop__pch.h.fast -c -o Vtop_IntFile__DepSet_hd4879354__1.o Vtop_IntFile__DepSet_hd4879354__1.cpp
ccache g++ -Os  -I.  -MMD -I/nfs/home/zhaohong/verilator/include -I/nfs/home/zhaohong/verilator/include/vltstd -DVM_COVERAGE=0 -DVM_SC=0 -DVM_TRACE=1 -DVM_TRACE_FST=1 -DVM_TRACE_VCD=0 -faligned-new -fcf-protection=none -Wno-bool-operation -Wno-shadow -Wno-sign-compare -Wno-tautological-compare -Wno-uninitialized -Wno-unused-but-set-parameter -Wno-unused-but-set-variable -Wno-unused-parameter -Wno-unused-variable      -include Vtop__pch.h.fast -c -o Vtop__Dpi.o Vtop__Dpi.cpp
ccache g++ -Os  -I.  -MMD -I/nfs/home/zhaohong/verilator/include -I/nfs/home/zhaohong/verilator/include/vltstd -DVM_COVERAGE=0 -DVM_SC=0 -DVM_TRACE=1 -DVM_TRACE_FST=1 -DVM_TRACE_VCD=0 -faligned-new -fcf-protection=none -Wno-bool-operation -Wno-shadow -Wno-sign-compare -Wno-tautological-compare -Wno-uninitialized -Wno-unused-but-set-parameter -Wno-unused-but-set-variable -Wno-unused-parameter -Wno-unused-variable      -include Vtop__pch.h.fast -c -o Vtop__Trace__0.o Vtop__Trace__0.cpp
ccache g++   -I.  -MMD -I/nfs/home/zhaohong/verilator/include -I/nfs/home/zhaohong/verilator/include/vltstd -DVM_COVERAGE=0 -DVM_SC=0 -DVM_TRACE=1 -DVM_TRACE_FST=1 -DVM_TRACE_VCD=0 -faligned-new -fcf-protection=none -Wno-bool-operation -Wno-shadow -Wno-sign-compare -Wno-tautological-compare -Wno-uninitialized -Wno-unused-but-set-parameter -Wno-unused-but-set-variable -Wno-unused-parameter -Wno-unused-variable      -x c++-header Vtop__pch.h -o Vtop__pch.h.slow.gch
ccache g++   -I.  -MMD -I/nfs/home/zhaohong/verilator/include -I/nfs/home/zhaohong/verilator/include/vltstd -DVM_COVERAGE=0 -DVM_SC=0 -DVM_TRACE=1 -DVM_TRACE_FST=1 -DVM_TRACE_VCD=0 -faligned-new -fcf-protection=none -Wno-bool-operation -Wno-shadow -Wno-sign-compare -Wno-tautological-compare -Wno-uninitialized -Wno-unused-but-set-parameter -Wno-unused-but-set-variable -Wno-unused-parameter -Wno-unused-variable      -include Vtop__pch.h.slow -c -o Vtop___024root__Slow.o Vtop___024root__Slow.cpp
ccache g++   -I.  -MMD -I/nfs/home/zhaohong/verilator/include -I/nfs/home/zhaohong/verilator/include/vltstd -DVM_COVERAGE=0 -DVM_SC=0 -DVM_TRACE=1 -DVM_TRACE_FST=1 -DVM_TRACE_VCD=0 -faligned-new -fcf-protection=none -Wno-bool-operation -Wno-shadow -Wno-sign-compare -Wno-tautological-compare -Wno-uninitialized -Wno-unused-but-set-parameter -Wno-unused-but-set-variable -Wno-unused-parameter -Wno-unused-variable      -include Vtop__pch.h.slow -c -o Vtop___024root__DepSet_h84412442__0__Slow.o Vtop___024root__DepSet_h84412442__0__Slow.cpp
ccache g++   -I.  -MMD -I/nfs/home/zhaohong/verilator/include -I/nfs/home/zhaohong/verilator/include/vltstd -DVM_COVERAGE=0 -DVM_SC=0 -DVM_TRACE=1 -DVM_TRACE_FST=1 -DVM_TRACE_VCD=0 -faligned-new -fcf-protection=none -Wno-bool-operation -Wno-shadow -Wno-sign-compare -Wno-tautological-compare -Wno-uninitialized -Wno-unused-but-set-parameter -Wno-unused-but-set-variable -Wno-unused-parameter -Wno-unused-variable      -include Vtop__pch.h.slow -c -o Vtop___024root__DepSet_heccd7ead__0__Slow.o Vtop___024root__DepSet_heccd7ead__0__Slow.cpp
ccache g++   -I.  -MMD -I/nfs/home/zhaohong/verilator/include -I/nfs/home/zhaohong/verilator/include/vltstd -DVM_COVERAGE=0 -DVM_SC=0 -DVM_TRACE=1 -DVM_TRACE_FST=1 -DVM_TRACE_VCD=0 -faligned-new -fcf-protection=none -Wno-bool-operation -Wno-shadow -Wno-sign-compare -Wno-tautological-compare -Wno-uninitialized -Wno-unused-but-set-parameter -Wno-unused-but-set-variable -Wno-unused-parameter -Wno-unused-variable      -include Vtop__pch.h.slow -c -o Vtop_IntFile__Slow.o Vtop_IntFile__Slow.cpp
ccache g++   -I.  -MMD -I/nfs/home/zhaohong/verilator/include -I/nfs/home/zhaohong/verilator/include/vltstd -DVM_COVERAGE=0 -DVM_SC=0 -DVM_TRACE=1 -DVM_TRACE_FST=1 -DVM_TRACE_VCD=0 -faligned-new -fcf-protection=none -Wno-bool-operation -Wno-shadow -Wno-sign-compare -Wno-tautological-compare -Wno-uninitialized -Wno-unused-but-set-parameter -Wno-unused-but-set-variable -Wno-unused-parameter -Wno-unused-variable      -include Vtop__pch.h.slow -c -o Vtop_IntFile__DepSet_hd4879354__0__Slow.o Vtop_IntFile__DepSet_hd4879354__0__Slow.cpp
ccache g++   -I.  -MMD -I/nfs/home/zhaohong/verilator/include -I/nfs/home/zhaohong/verilator/include/vltstd -DVM_COVERAGE=0 -DVM_SC=0 -DVM_TRACE=1 -DVM_TRACE_FST=1 -DVM_TRACE_VCD=0 -faligned-new -fcf-protection=none -Wno-bool-operation -Wno-shadow -Wno-sign-compare -Wno-tautological-compare -Wno-uninitialized -Wno-unused-but-set-parameter -Wno-unused-but-set-variable -Wno-unused-parameter -Wno-unused-variable      -include Vtop__pch.h.slow -c -o Vtop__Syms.o Vtop__Syms.cpp
ccache g++   -I.  -MMD -I/nfs/home/zhaohong/verilator/include -I/nfs/home/zhaohong/verilator/include/vltstd -DVM_COVERAGE=0 -DVM_SC=0 -DVM_TRACE=1 -DVM_TRACE_FST=1 -DVM_TRACE_VCD=0 -faligned-new -fcf-protection=none -Wno-bool-operation -Wno-shadow -Wno-sign-compare -Wno-tautological-compare -Wno-uninitialized -Wno-unused-but-set-parameter -Wno-unused-but-set-variable -Wno-unused-parameter -Wno-unused-variable      -include Vtop__pch.h.slow -c -o Vtop__Trace__0__Slow.o Vtop__Trace__0__Slow.cpp
ccache g++   -I.  -MMD -I/nfs/home/zhaohong/verilator/include -I/nfs/home/zhaohong/verilator/include/vltstd -DVM_COVERAGE=0 -DVM_SC=0 -DVM_TRACE=1 -DVM_TRACE_FST=1 -DVM_TRACE_VCD=0 -faligned-new -fcf-protection=none -Wno-bool-operation -Wno-shadow -Wno-sign-compare -Wno-tautological-compare -Wno-uninitialized -Wno-unused-but-set-parameter -Wno-unused-but-set-variable -Wno-unused-parameter -Wno-unused-variable      -include Vtop__pch.h.slow -c -o Vtop__TraceDecls__0__Slow.o Vtop__TraceDecls__0__Slow.cpp
echo "" > Vtop__ALL.verilator_deplist.tmp
Archive ar -rcs Vtop__ALL.a Vtop.o Vtop___024root__DepSet_h84412442__0.o Vtop___024root__DepSet_heccd7ead__0.o Vtop_IntFile__DepSet_hd4879354__0.o Vtop_IntFile__DepSet_hd4879354__1.o Vtop__Dpi.o Vtop__Trace__0.o Vtop___024root__Slow.o Vtop___024root__DepSet_h84412442__0__Slow.o Vtop___024root__DepSet_heccd7ead__0__Slow.o Vtop_IntFile__Slow.o Vtop_IntFile__DepSet_hd4879354__0__Slow.o Vtop__Syms.o Vtop__Trace__0__Slow.o Vtop__TraceDecls__0__Slow.o
g++    verilator.o verilated.o verilated_dpi.o verilated_vpi.o verilated_fst_c.o verilated_threads.o Vtop__ALL.a   -Wl,-rpath,/nfs/home/zhaohong/openxs/XiangShan_master/.venv/lib/python3.12/site-packages/cocotb/libs -L/nfs/home/zhaohong/openxs/XiangShan_master/.venv/lib/python3.12/site-packages/cocotb/libs -lcocotbvpi_verilator -lz  -pthread -lpthread -latomic   -o Vtop
rm Vtop__ALL.verilator_deplist.tmp
make[2]: 离开目录“/nfs/home/zhaohong/openxs/XiangShan_master/ChiselAIA/test/sim_build_axi_fifo”
rm -f results.xml
MODULE=main TESTCASE= TOPLEVEL=AXI4IMSIC TOPLEVEL_LANG=verilog \
         ../sim_build_axi_fifo/Vtop --trace --trace --trace-fst --trace-structs  
     -.--ns INFO     gpi                                ..mbed/gpi_embed.cpp:108  in set_program_name_in_venv        Using Python virtual environment interpreter at /nfs/home/zhaohong/openxs/XiangShan_master/.venv/bin/python
     -.--ns INFO     gpi                                ../gpi/GpiCommon.cpp:101  in gpi_print_registered_impl       VPI registered
     0.00ns INFO     cocotb                             Running on Verilator version 5.023 devel
     0.00ns INFO     cocotb                             Running tests with cocotb v1.9.2 from /nfs/home/zhaohong/openxs/XiangShan_master/.venv/lib/python3.12/site-packages/cocotb
     0.00ns INFO     cocotb                             Seeding Python random module with 1776654525
     0.00ns INFO     cocotb.regression                  pytest not found, install it to enable better AssertionError messages
     0.00ns INFO     cocotb.regression                  Found test main.fifo_full_keeps_all_msi
     0.00ns INFO     cocotb.regression                  running fifo_full_keeps_all_msi (1/1)
  2700.50ns INFO     cocotb.AXI4IMSIC                   irq 1: issue at 2700 ns addr=0x0
  2702.50ns INFO     cocotb.AXI4IMSIC                   irq 1: AW fire at 2702 ns
  2702.50ns INFO     cocotb.AXI4IMSIC                   irq 1: W fire at 2702 ns
 22702.50ns INFO     cocotb.regression                  fifo_full_keeps_all_msi failed
                                                        Traceback (most recent call last):
                                                          File "/nfs/home/zhaohong/openxs/XiangShan_master/ChiselAIA/test/axi_fifo_full/main.py", line 308, in fifo_full_keeps_all_msi
                                                            await write_task
                                                          File "/nfs/home/zhaohong/openxs/XiangShan_master/.venv/lib/python3.12/site-packages/cocotb/task.py", line 289, in __await__
                                                            return (yield self)
                                                                    ^^^^^^^^^^
                                                          File "/nfs/home/zhaohong/openxs/XiangShan_master/ChiselAIA/test/axi_fifo_full/main.py", line 198, in axi4_write32
                                                            b_valid_ns = await axi4_b_receive(ports)
                                                                         ^^^^^^^^^^^^^^^^^^^^^^^^^^^
                                                          File "/nfs/home/zhaohong/openxs/XiangShan_master/ChiselAIA/test/axi_fifo_full/main.py", line 153, in axi4_b_receive
                                                            return await with_timeout(wait_for_b_valid(ports), 20000, "ns")
                                                                   ^^^^^^^^^^^^^^^^^^^^^^^^^^^^^^^^^^^^^^^^^^^^^^^^^^^^^^^^
                                                          File "/nfs/home/zhaohong/openxs/XiangShan_master/.venv/lib/python3.12/site-packages/cocotb/triggers.py", line 1102, in with_timeout
                                                            raise cocotb.result.SimTimeoutError
                                                        cocotb.result.SimTimeoutError
 22702.50ns INFO     cocotb.regression                  **************************************************************************************
                                                        ** TEST                          STATUS  SIM TIME (ns)  REAL TIME (s)  RATIO (ns/s) **
                                                        **************************************************************************************
                                                        ** main.fifo_full_keeps_all_msi   FAIL       22702.50           3.22       7049.73  **
                                                        **************************************************************************************
                                                        ** TESTS=1 PASS=0 FAIL=1 SKIP=0              22702.50           3.23       7018.64  **
                                                        **************************************************************************************
                                                        
- :0: Verilog $finish
make[1]: 离开目录“/nfs/home/zhaohong/openxs/XiangShan_master/ChiselAIA/test/axi_fifo_full”
